<svg width="20" height="20" viewBox="0 0 20 20" fill="none" xmlns="http://www.w3.org/2000/svg">
<path fill-rule="evenodd" clip-rule="evenodd" d="M17.9325 6.5405C17.9011 6.49362 17.8199 6.45023 17.6904 6.41105C17.5596 6.37256 17.393 6.36557 17.1901 6.39146L14.9411 6.40755C14.8887 6.40195 14.8369 6.40335 14.7851 6.41105C14.7326 6.41945 14.699 6.42714 14.6836 6.43484C14.6675 6.44254 14.6549 6.44883 14.6445 6.45443L14.613 6.47752C14.5871 6.49362 14.5584 6.52091 14.5269 6.55939C14.4961 6.59858 14.4695 6.64406 14.4492 6.69654C14.2043 7.32631 13.9258 7.912 13.6137 8.4536C13.4206 8.77619 13.2436 9.05608 13.0826 9.2933C12.921 9.52981 12.7859 9.70475 12.6761 9.81601C12.5669 9.92866 12.4682 10.0182 12.3794 10.0861C12.2912 10.1533 12.2233 10.182 12.1765 10.1715C12.1296 10.161 12.0855 10.1512 12.0435 10.1407C11.9707 10.0938 11.9119 10.0301 11.8679 9.94896C11.8238 9.86849 11.7937 9.76702 11.7783 9.64457C11.7629 9.52211 11.7531 9.41715 11.751 9.32828C11.7482 9.23942 11.7496 9.11486 11.7545 8.95322C11.7601 8.79228 11.7629 8.68242 11.7629 8.62504C11.7629 8.42771 11.7664 8.21289 11.7741 7.98128C11.7818 7.74966 11.7888 7.56563 11.7937 7.43058C11.7993 7.29483 11.8014 7.15208 11.8014 7.00093C11.8014 6.84979 11.7923 6.73153 11.7741 6.64546C11.7559 6.55939 11.7286 6.47682 11.6922 6.39565C11.6558 6.31518 11.6027 6.25291 11.532 6.20812C11.462 6.16404 11.3745 6.12905 11.2703 6.10316C10.9946 6.04018 10.6433 6.0066 10.2165 6.001C9.24802 5.9912 8.62595 6.05348 8.34955 6.18853C8.23549 6.24591 8.13613 6.32428 8.05286 6.42294C7.95909 6.5377 7.94649 6.59998 8.01367 6.61048C8.32646 6.65736 8.54758 6.76932 8.67773 6.94635L8.72461 7.04012C8.761 7.10799 8.79738 7.22765 8.83377 7.39909C8.87016 7.57123 8.89395 7.76086 8.90445 7.96938C8.93034 8.34934 8.93034 8.67472 8.90445 8.94552C8.87785 9.21632 8.85336 9.42695 8.83027 9.57809C8.80648 9.72924 8.77149 9.85169 8.72461 9.94546C8.67773 10.0392 8.64624 10.0966 8.63084 10.1169C8.61545 10.1379 8.60215 10.1512 8.59166 10.1561C8.52448 10.182 8.45381 10.1953 8.38104 10.1953C8.30826 10.1953 8.21939 10.1589 8.11513 10.0861C8.01157 10.0126 7.90311 9.91257 7.79115 9.78522C7.67919 9.65786 7.55324 9.47943 7.41259 9.24991C7.27194 9.0211 7.12639 8.75029 6.97525 8.43821L6.84999 8.21149C6.77232 8.06594 6.66526 7.85322 6.53021 7.57472C6.39446 7.29623 6.2748 7.02682 6.17054 6.76652C6.12926 6.65736 6.06698 6.57409 5.98371 6.51671L5.94453 6.49362C5.91793 6.47263 5.87665 6.45023 5.81927 6.42714C5.76189 6.40335 5.70241 6.38656 5.64014 6.37606L3.50032 6.39146C3.2813 6.39146 3.13295 6.44114 3.05458 6.5405L3.02379 6.58738C3.0077 6.61327 3 6.65456 3 6.71194C3 6.76932 3.01609 6.83929 3.04688 6.92256C3.35967 7.65729 3.69904 8.36474 4.06641 9.04699C4.43308 9.72924 4.75216 10.2785 5.02296 10.6949C5.29376 11.1112 5.56946 11.5045 5.85076 11.874C6.13206 12.2441 6.31819 12.4806 6.40916 12.5849C6.50012 12.6892 6.5715 12.7668 6.62398 12.8193L6.81921 13.0068C6.94376 13.1314 7.12779 13.2811 7.3699 13.4554C7.61202 13.6303 7.88002 13.8018 8.17391 13.9711C8.4678 14.1404 8.81068 14.2783 9.20114 14.3846C9.59159 14.4917 9.97156 14.5344 10.341 14.5141H11.2395C11.4214 14.498 11.5593 14.4413 11.653 14.342L11.6845 14.3028C11.7055 14.272 11.7244 14.2237 11.7433 14.1586C11.7615 14.0935 11.7706 14.0222 11.7706 13.9438C11.765 13.7199 11.7818 13.5184 11.821 13.3385C11.8602 13.1587 11.9043 13.0236 11.9539 12.9327C12.0036 12.8417 12.0596 12.7647 12.1219 12.7018C12.1841 12.6395 12.2282 12.6017 12.2548 12.5891C12.2807 12.5758 12.3017 12.5667 12.3171 12.5611C12.4424 12.5198 12.5893 12.5604 12.7586 12.6822C12.9273 12.8046 13.0861 12.9558 13.2345 13.1356C13.3828 13.3147 13.5612 13.517 13.7698 13.7409C13.9776 13.9648 14.1602 14.1313 14.3163 14.2405L14.4723 14.3343C14.5766 14.3965 14.7116 14.4539 14.8789 14.5057C15.0454 14.5582 15.191 14.5708 15.3162 14.5449L17.3154 14.5141C17.5127 14.5141 17.6666 14.4812 17.7758 14.4161C17.8857 14.3511 17.95 14.2797 17.971 14.2013C17.992 14.1236 17.9934 14.0348 17.9752 13.9361C17.957 13.8367 17.9388 13.7682 17.9207 13.729C17.9025 13.6898 17.8857 13.6576 17.8696 13.631C17.6093 13.1629 17.1124 12.5877 16.3784 11.9054C16.3728 11.8949 16.3595 11.8845 16.3392 11.874C16.1622 11.713 16.0139 11.5752 15.8942 11.4604C15.7738 11.3456 15.6892 11.2337 15.6402 11.1245C15.5905 11.0154 15.5569 10.9251 15.5387 10.8551C15.5205 10.7845 15.5513 10.6753 15.6325 10.5269C15.713 10.3786 15.792 10.2498 15.8704 10.1407C15.9488 10.0308 16.0915 9.844 16.3 9.57809C16.5135 9.30239 16.6828 9.08127 16.8074 8.91404C17.7086 7.71677 18.0991 6.95125 17.9787 6.61817L17.9325 6.5405Z" fill="white"/>
</svg>
